<svg xmlns="http://www.w3.org/2000/svg" width="33.969" height="22" viewBox="0 0 33.969 22">
  <metadata><?xpacket begin="﻿" id="W5M0MpCehiHzreSzNTczkc9d"?>
<x:xmpmeta xmlns:x="adobe:ns:meta/" x:xmptk="Adobe XMP Core 5.6-c142 79.160924, 2017/07/13-01:06:39        ">
   <rdf:RDF xmlns:rdf="http://www.w3.org/1999/02/22-rdf-syntax-ns#">
      <rdf:Description rdf:about=""/>
   </rdf:RDF>
</x:xmpmeta>
                                                                                                    
                                                                                                    
                                                                                                    
                                                                                                    
                                                                                                    
                                                                                                    
                                                                                                    
                                                                                                    
                                                                                                    
                                                                                                    
                                                                                                    
                                                                                                    
                                                                                                    
                                                                                                    
                                                                                                    
                                                                                                    
                                                                                                    
                                                                                                    
                                                                                                    
                                                                                                    
                           
<?xpacket end="w"?></metadata>
<defs>
    <style>
      .cls-1 {
        fill: #606060;
        fill-rule: evenodd;
      }
    </style>
  </defs>
  <path class="cls-1" d="M704.782,2269.33c-0.3-.42-7.541-10.33-16.785-10.33s-16.481,9.91-16.785,10.33a1.15,1.15,0,0,0,0,1.34c0.3,0.42,7.542,10.33,16.785,10.33s16.482-9.91,16.785-10.33A1.144,1.144,0,0,0,704.782,2269.33ZM688,2278.72c-6.808,0-12.706-6.57-14.452-8.72,1.744-2.15,7.629-8.72,14.452-8.72s12.706,6.57,14.452,8.72C700.706,2272.15,694.821,2278.72,688,2278.72Zm0-15.55a6.831,6.831,0,1,0,6.726,6.83A6.79,6.79,0,0,0,688,2263.17Zm0,11.38a4.55,4.55,0,1,1,4.484-4.55A4.521,4.521,0,0,1,688,2274.55Z" transform="translate(-671.031 -2259)"/>
</svg>
