<svg xmlns="http://www.w3.org/2000/svg" width="19" height="25" viewBox="0 0 19 25">
  <metadata><?xpacket begin="﻿" id="W5M0MpCehiHzreSzNTczkc9d"?>
<x:xmpmeta xmlns:x="adobe:ns:meta/" x:xmptk="Adobe XMP Core 5.6-c142 79.160924, 2017/07/13-01:06:39        ">
   <rdf:RDF xmlns:rdf="http://www.w3.org/1999/02/22-rdf-syntax-ns#">
      <rdf:Description rdf:about=""/>
   </rdf:RDF>
</x:xmpmeta>
                                                                                                    
                                                                                                    
                                                                                                    
                                                                                                    
                                                                                                    
                                                                                                    
                                                                                                    
                                                                                                    
                                                                                                    
                                                                                                    
                                                                                                    
                                                                                                    
                                                                                                    
                                                                                                    
                                                                                                    
                                                                                                    
                                                                                                    
                                                                                                    
                                                                                                    
                                                                                                    
                           
<?xpacket end="w"?></metadata>
<defs>
    <style>
      .cls-1 {
        fill: #606060;
        fill-rule: evenodd;
      }
    </style>
  </defs>
  <path class="cls-1" d="M896.5,2267.79a5.4,5.4,0,1,0-5.647-5.39A5.53,5.53,0,0,0,896.5,2267.79Zm1.187,1.75a0.689,0.689,0,0,0-.494-0.2h-1.386a0.689,0.689,0,0,0-.494.2,0.587,0.587,0,0,0-.085.72l0.74,1.07-0.346,2.79,0.682,1.73a0.209,0.209,0,0,0,.391,0l0.683-1.73-0.347-2.79,0.741-1.07a0.587,0.587,0,0,0-.085-0.72h0ZM887.8,2282H905.2a0.792,0.792,0,0,0,.8-0.77v-6.92a4.742,4.742,0,0,0-3.406-4.46l-1.588-.46a0.573,0.573,0,0,0-.7.33l-3.8,9.97-3.8-9.97a0.572,0.572,0,0,0-.536-0.36,0.963,0.963,0,0,0-.168.02l-1.576.47a4.737,4.737,0,0,0-3.418,4.46v6.92a0.792,0.792,0,0,0,.8.77h0Z" transform="translate(-887 -2257)"/>
</svg>
