<svg xmlns="http://www.w3.org/2000/svg" width="20.63" height="26" viewBox="0 0 20.63 26">
  <metadata><?xpacket begin="﻿" id="W5M0MpCehiHzreSzNTczkc9d"?>
<x:xmpmeta xmlns:x="adobe:ns:meta/" x:xmptk="Adobe XMP Core 5.6-c142 79.160924, 2017/07/13-01:06:39        ">
   <rdf:RDF xmlns:rdf="http://www.w3.org/1999/02/22-rdf-syntax-ns#">
      <rdf:Description rdf:about=""/>
   </rdf:RDF>
</x:xmpmeta>
                                                                                                    
                                                                                                    
                                                                                                    
                                                                                                    
                                                                                                    
                                                                                                    
                                                                                                    
                                                                                                    
                                                                                                    
                                                                                                    
                                                                                                    
                                                                                                    
                                                                                                    
                                                                                                    
                                                                                                    
                                                                                                    
                                                                                                    
                                                                                                    
                                                                                                    
                                                                                                    
                           
<?xpacket end="w"?></metadata>
<defs>
    <style>
      .cls-1 {
        fill: #606060;
        fill-rule: evenodd;
      }
    </style>
  </defs>
  <path class="cls-1" d="M1104.56,2195.22a2.223,2.223,0,1,0,2.33,2.22A2.276,2.276,0,0,0,1104.56,2195.22Zm7.98-6.34h-1.66v-2.85a6.322,6.322,0,0,0-12.63,0v2.85h-1.67a2.276,2.276,0,0,0-2.32,2.22v12.68a2.27,2.27,0,0,0,2.32,2.22h15.96a2.272,2.272,0,0,0,2.33-2.22V2191.1A2.279,2.279,0,0,0,1112.54,2188.88Zm-12.3-2.85a4.33,4.33,0,0,1,8.65,0v2.85h-8.65v-2.85Zm12.64,18.07h-16.63v-13.31h16.63v13.31Z" transform="translate(-1094.25 -2180)"/>
</svg>
