<svg xmlns="http://www.w3.org/2000/svg" width="28" height="25.97" viewBox="0 0 28 25.97">
  <metadata><?xpacket begin="﻿" id="W5M0MpCehiHzreSzNTczkc9d"?>
<x:xmpmeta xmlns:x="adobe:ns:meta/" x:xmptk="Adobe XMP Core 5.6-c142 79.160924, 2017/07/13-01:06:39        ">
   <rdf:RDF xmlns:rdf="http://www.w3.org/1999/02/22-rdf-syntax-ns#">
      <rdf:Description rdf:about=""/>
   </rdf:RDF>
</x:xmpmeta>
                                                                                                    
                                                                                                    
                                                                                                    
                                                                                                    
                                                                                                    
                                                                                                    
                                                                                                    
                                                                                                    
                                                                                                    
                                                                                                    
                                                                                                    
                                                                                                    
                                                                                                    
                                                                                                    
                                                                                                    
                                                                                                    
                                                                                                    
                                                                                                    
                                                                                                    
                                                                                                    
                           
<?xpacket end="w"?></metadata>
<defs>
    <style>
      .cls-1 {
        fill: #606060;
        fill-rule: evenodd;
      }
    </style>
  </defs>
  <path class="cls-1" d="M785.617,2259.51h-4.156a0.84,0.84,0,0,0,0,1.68h4.156A0.84,0.84,0,0,0,785.617,2259.51Zm0,6.7h-4.156a0.84,0.84,0,0,0,0,1.68h4.156A0.84,0.84,0,0,0,785.617,2266.21Zm-1.641-3.35H779.82a0.84,0.84,0,0,0,0,1.68h4.156A0.84,0.84,0,0,0,783.976,2262.86Zm21.383,4.19h-4.976v-3.35a1.637,1.637,0,0,0-2.8-1.18l-6.562,6.7a1.689,1.689,0,0,0,0,2.36l3.762,3.85-4.583,4.67a1.7,1.7,0,0,0,0,2.37,1.607,1.607,0,0,0,2.32,0l5.743-5.86a1.7,1.7,0,0,0,0-2.37l-3.762-3.84,2.6-2.66v0.99a1.657,1.657,0,0,0,1.641,1.67h6.617A1.675,1.675,0,0,0,805.359,2267.05Zm-11.039-8.51a1.612,1.612,0,0,0-2.07.21l-4.512,4.6a1.7,1.7,0,0,0,0,2.37,1.607,1.607,0,0,0,2.32,0l3.561-3.63,1.2,0.88,1.6-1.64a3.412,3.412,0,0,1,.93-0.65Zm-4.46,14.23a3.383,3.383,0,0,1-.84-1.51l-8.664,8.84a1.7,1.7,0,0,0,0,2.37,1.607,1.607,0,0,0,2.32,0l8.344-8.52ZM801.2,2257a2.51,2.51,0,1,1-2.461,2.51A2.484,2.484,0,0,1,801.2,2257Z" transform="translate(-779 -2257)"/>
</svg>
