<svg xmlns="http://www.w3.org/2000/svg" width="26" height="26" viewBox="0 0 26 26">
  <metadata><?xpacket begin="﻿" id="W5M0MpCehiHzreSzNTczkc9d"?>
<x:xmpmeta xmlns:x="adobe:ns:meta/" x:xmptk="Adobe XMP Core 5.6-c142 79.160924, 2017/07/13-01:06:39        ">
   <rdf:RDF xmlns:rdf="http://www.w3.org/1999/02/22-rdf-syntax-ns#">
      <rdf:Description rdf:about=""/>
   </rdf:RDF>
</x:xmpmeta>
                                                                                                    
                                                                                                    
                                                                                                    
                                                                                                    
                                                                                                    
                                                                                                    
                                                                                                    
                                                                                                    
                                                                                                    
                                                                                                    
                                                                                                    
                                                                                                    
                                                                                                    
                                                                                                    
                                                                                                    
                                                                                                    
                                                                                                    
                                                                                                    
                                                                                                    
                                                                                                    
                           
<?xpacket end="w"?></metadata>
<defs>
    <style>
      .cls-1 {
        fill: #606060;
        fill-rule: evenodd;
      }
    </style>
  </defs>
  <path class="cls-1" d="M1519.7,2200.8h2.6v-2.6h-2.6v2.6Zm1.3-20.81a13.01,13.01,0,1,0,13,13.01A13.015,13.015,0,0,0,1521,2179.99Zm0,23.41a10.405,10.405,0,1,1,10.4-10.4A10.411,10.411,0,0,1,1521,2203.4Zm0-18.2a5.2,5.2,0,0,0-5.2,5.2h2.6a2.6,2.6,0,0,1,5.2,0c0,2.6-3.9,2.27-3.9,6.5h2.6c0-2.92,3.9-3.25,3.9-6.5A5.2,5.2,0,0,0,1521,2185.2Z" transform="translate(-1508 -2180)"/>
</svg>
